apple,0.5,04/29/2022
apple,0.5,04/29/2022
apple,0.5,04/29/2022
apple,0.5,04/29/2022
avocado,1.5,04/29/2022
avocado,1.5,04/29/2022
avocado,1.5,04/29/2022
avocado,1.5,04/29/2022
bag of chips,0.99,04/29/2022
bag of chips,0.99,04/29/2022
bag of chips,0.99,04/29/2022
bag of chips,0.99,04/29/2022
banana,0.62,04/29/2022
banana,0.62,04/29/2022
banana,0.62,04/29/2022
banana,0.62,04/29/2022
banana,0.62,04/29/2022
banana,0.62,04/29/2022
banana,0.62,04/29/2022
banana,0.62,04/29/2022
beer,10.99,21
beer,10.99,21
bottle of juice,1.19,04/29/2022
bottle of juice,1.19,04/29/2022
bottle of juice,1.19,04/29/2022
bottle of juice,1.19,04/29/2022
bottle of juice,1.19,04/29/2022
bottle of water,1.0,04/29/2023
bottle of water,1.0,04/29/2023
bottle of water,1.0,04/29/2023
bottle of water,1.0,04/29/2023
bread,3.5,04/29/2022
bread,3.5,04/29/2022
bread,3.5,04/29/2022
bread,3.5,04/29/2022
carrot,0.62,04/29/2022
carrot,0.62,04/29/2022
carrot,0.62,04/29/2022
carrot,0.62,04/29/2022
carrot,0.62,04/29/2022
carrot,0.62,04/29/2022
cold meds,24.99,18
cold meds,24.99,18
pad of paper,3.0
pad of paper,3.0
pad of paper,3.0
pen,1.79
pen,1.79
pen,1.79
pen,1.79
pencil,1.29
pencil,1.29
pencil,1.29
wine,12.99,21
wine,12.99,21
wine,12.99,21
wine,12.99,21
